{
  "kind": "collectionType",
  "collectionName": "videos",
  "info": {
    "singularName": "video",
    "pluralName": "videos",
    "displayName": "video"
  },
  "options": {
    "draftAndPublish": true
  },
  "pluginOptions": {},
  "attributes": {
    "nombre": {
      "type": "string",
      "required": true
    },
    "url": {
      "type": "string",
      "required": true
    }
  }
}
