{
  "kind": "collectionType",
  "collectionName": "products",
  "info": {
    "singularName": "product",
    "pluralName": "products",
    "displayName": "product",
    "description": ""
  },
  "options": {
    "draftAndPublish": true
  },
  "pluginOptions": {},
  "attributes": {
    "name": {
      "type": "string",
      "required": true,
      "maxLength": 45
    },
    "reference": {
      "type": "string",
      "required": true,
      "unique": true,
      "maxLength": 45
    },
    "price": {
      "type": "decimal"
    },
    "quantity": {
      "type": "integer",
      "default": 0
    },
    "description": {
      "type": "richtext"
    }
  }
}
